\boolfalse {citerequest}\boolfalse {citetracker}\boolfalse {pagetracker}\boolfalse {backtracker}\relax 
\babel@toc {french}{}
\defcounter {refsection}{0}\relax 
\contentsline {chapter}{\numberline {1}Introduction}{1}{chapter.1}%
\defcounter {refsection}{0}\relax 
\contentsline {chapter}{\numberline {2}Travail effectué}{2}{chapter.2}%
\defcounter {refsection}{0}\relax 
\contentsline {section}{\numberline {2.1}Plan Horizontal}{2}{section.2.1}%
\defcounter {refsection}{0}\relax 
\contentsline {subsection}{\numberline {2.1.1}Modèle cinématique}{2}{subsection.2.1.1}%
\defcounter {refsection}{0}\relax 
\contentsline {subsection}{\numberline {2.1.2}Modèle dynamique}{2}{subsection.2.1.2}%
\defcounter {refsection}{0}\relax 
\contentsline {subsection}{\numberline {2.1.3}Modèle d'actionnement}{2}{subsection.2.1.3}%
\defcounter {refsection}{0}\relax 
\contentsline {section}{\numberline {2.2}Plan Vertical}{3}{section.2.2}%
\defcounter {refsection}{0}\relax 
\contentsline {subsection}{\numberline {2.2.1}Modèle cinématique}{3}{subsection.2.2.1}%
\defcounter {refsection}{0}\relax 
\contentsline {subsection}{\numberline {2.2.2}Modèle dynamique}{3}{subsection.2.2.2}%
\defcounter {refsection}{0}\relax 
\contentsline {subsection}{\numberline {2.2.3}Modèle d'actionnement}{3}{subsection.2.2.3}%
